…
``` r
table1 <- format_table(sp_example_data)

#formatted table
table1
#> # A tibble: 30 x 4
#>    especie medidas              min   max
#>    <chr>   <chr>              <dbl> <dbl>
#>  1 sp1     body depth          36.6  41.8
#>  2 sp1     head length         21.3  23.6
#>  3 sp1     orbit diameter      32.6  38.3
#>  4 sp1     interorbital        34.5  38.3
#>  5 sp1     predorsal distance  47.3  51.5
#>  6 sp2     body depth          36.5  45.4
#>  7 sp2     head length         23.7  26.2
#>  8 sp2     orbit diameter      34.1  38.8
#>  9 sp2     interorbital        34.8  37.8
#> 10 sp2     predorsal distance  47.7  51.2
#> # ... with 20 more rows
```
…
